decodificador(ISL)/ondas.vcd
$date
	Mon Jul  7 11:55:15 2025
$end
$version
	Icarus Verilog
$end
$timescale
	1s
$end
$scope module codificador_tb $end
$var wire 1 ! done $end
$var wire 8 " ciphertext [7:0] $end
$var parameter 32 # CLK_PERIOD $end
$var reg 1 $ clk $end
$var reg 8 % key [7:0] $end
$var reg 8 & plaintext [7:0] $end
$var reg 1 ' rst $end
$var reg 1 ( start $end
$scope module dut $end
$var wire 8 ) ciphertext [7:0] $end
$var wire 1 $ clk $end
$var wire 8 * key [7:0] $end
$var wire 8 + plaintext [7:0] $end
$var wire 1 ' rst $end
$var wire 1 ( start $end
$var wire 1 , counter_7 $end
$var reg 8 - ciphertext_aux [7:0] $end
$var reg 4 . counter [3:0] $end
$var reg 1 ! done $end
$var reg 8 / key_aux [7:0] $end
$var reg 8 0 plaintext_aux [7:0] $end
$var reg 2 1 state_actual [1:0] $end
$var reg 2 2 state_next [1:0] $end
$upscope $end
$upscope $end
$enddefinitions $end
$comment Show the parameter values. $end
$dumpall
b1010 #
$end
#0
$dumpvars
bx 2
bx 1
bx 0
bx /
bx .
bx -
x,
b0 +
b0 *
bx )
0(
1'
b0 &
b0 %
0$
bx "
0!
$end
#5
b0 2
b0 0
b0 /
b0 "
b0 )
b0 -
0,
b0 .
b0 1
1$
#10
0$
#15
0'
1$
#20
0$
#25
1$
#30
0$
#35
b1 2
1(
b11110000 &
b11110000 +
b10100101 %
b10100101 *
1$
#40
0$
#45
b1 1
b10 2
0(
1$
#50
0$
#55
b11110000 0
b10100101 /
b10 1
1$
#60
0$
#65
b1 .
b1 "
b1 )
b1 -
1$
#70
0$
#75
b10 .
1$
#80
0$
#85
b11 .
b101 "
b101 )
b101 -
1$
#90
0$
#95
b100 .
1$
#100
0$
#105
b101 .
b10101 "
b10101 )
b10101 -
1$
#110
0$
#115
b110 .
1$
#120
0$
#125
b11 2
1,
b111 .
b1010101 "
b1010101 )
b1010101 -
1$
#130
0$
#135
b0 2
1!
0,
b1000 .
b11 1
1$
#140
0$
#145
0!
b0 1
1$
#150
0$
#155
1$
#160
0$
#165
1$
#170
0$
#175
1$
#180
0$
#185
b1 2
1(
b11111111 &
b11111111 +
b11111111 %
b11111111 *
1$
#190
0$
#195
b1 1
b10 2
0(
1$
#200
0$
#205
b0 .
b11111111 0
b11111111 /
b10 1
1$
#210
0$
#215
b1 .
b1010100 "
b1010100 )
b1010100 -
1$
#220
0$
#225
b10 .
1$
#230
0$
#235
b11 .
b1010000 "
b1010000 )
b1010000 -
1$
#240
0$
#245
b100 .
1$
#250
0$
#255
b101 .
b1000000 "
b1000000 )
b1000000 -
1$
#260
0$
#265
b110 .
1$
#270
0$
#275
b11 2
1,
b111 .
b0 "
b0 )
b0 -
1$
#280
0$
#285
b0 2
1!
0,
b1000 .
b11 1
1$
#290
0$
#295
0!
b0 1
1$
#300
0$
#305
1$
#310
0$
#315
1$
#320
0$
#325
1$
#330
0$
#335
b1 2
1(
b10101011 &
b10101011 +
b10111101 %
b10111101 *
1$
#340
0$
#345
b1 1
b10 2
0(
1$
#350
0$
#355
b0 .
b10101011 0
b10111101 /
b10 1
1$
#360
0$
#365
b1 .
1$
#370
0$
#375
b10 .
b10 "
b10 )
b10 -
1$
#380
0$
#385
b11 .
b110 "
b110 )
b110 -
1$
#390
0$
#395
b100 .
1$
#400
0$
#405
b101 .
b10110 "
b10110 )
b10110 -
1$
#410
0$
#415
b110 .
1$
#420
0$
#425
b11 2
1,
b111 .
1$
#430
0$
#435
b0 2
1!
0,
b1000 .
b11 1
1$
#440
0$
#445
0!
b0 1
1$
#450
0$
#455
1$
#460
0$
#465
1$
#470
0$
#475
1$
#480
0$
#485
b1 2
1(
b11110011 &
b11110011 +
b11011011 %
b11011011 *
1$
#490
0$
#495
b1 1
b10 2
0(
1$
#500
0$
#505
b0 .
b11110011 0
b11011011 /
b10 1
1$
#510
0$
#515
b1 .
1$
#520
0$
#525
b10 .
b10100 "
b10100 )
b10100 -
1$
#530
0$
#535
b11 .
b10000 "
b10000 )
b10000 -
1$
#540
0$
#545
b100 .
b11000 "
b11000 )
b11000 -
1$
#550
0$
#555
b101 .
b1000 "
b1000 )
b1000 -
1$
#560
0$
#565
b110 .
b101000 "
b101000 )
b101000 -
1$
#570
0$
#575
b11 2
1,
b111 .
1$
#580
0$
#585
b0 2
1!
0,
b1000 .
b11 1
1$
#590
0$
#595
0!
b0 1
1$
#600
0$
#605
1$
#610
0$
#615
1$
#620
0$
#625
1$
#630
0$
#635
b1 2
1(
b11100011 &
b11100011 +
b10101010 %
b10101010 *
1$
#640
0$
#645
b1 1
b10 2
0(
1$
#650
0$
#655
b0 .
b11100011 0
b10101010 /
b10 1
1$
#660
0$
#665
b1 .
b101001 "
b101001 )
b101001 -
1$
#670
0$
#675
b10 .
1$
#680
0$
#685
b11 .
1$
#690
0$
#695
b100 .
1$
#700
0$
#705
b101 .
1$
#710
0$
#715
b110 .
b1001 "
b1001 )
b1001 -
1$
#720
0$
#725
b11 2
1,
b111 .
b1001001 "
b1001001 )
b1001001 -
1$
#730
0$
#735
b0 2
1!
0,
b1000 .
b11 1
1$
